****** PLAYBOOK RUN BREAKDOWN ******

{'skipped': {}, 'ok': {'localhost': 1}, 'dark': {}, 'failures': {}, 'ignored': {}, 'rescued': {}, 'processed': {'localhost': 1}, 'changed': {'localhost': 1}}

EVENT:  playbook_on_start
TASK:  None
UUID:  bc59fc6d-0b4a-45e7-a845-3ba2c0d6af01

EVENT:  playbook_on_play_start
TASK:  None
UUID:  2d8f37e9-5cb8-d38e-bfc8-00000000000a

EVENT:  playbook_on_task_start
TASK:  apt
UUID:  2d8f37e9-5cb8-d38e-bfc8-00000000000c

EVENT:  runner_on_start
TASK:  apt
UUID:  f0c50f40-5afd-4d38-ae96-1c2b71f9ea17

EVENT:  runner_on_ok
TASK:  apt
UUID:  b4882969-5fb3-4997-8f26-7d14348ade4d

EVENT:  playbook_on_stats
TASK:  None
UUID:  bdd760de-ddf5-43f8-8063-fa02907f4e73

